{
  "name": "qcif-kepler_archives",
  "version": "0.1.0",
  "author": "qcif",
  "summary": "Archives for access by coesra kepler puppet modules and deployment tools.",
  "license": "Nimrod: Monash University - see LICENSE_Nimrod, Other: LICENCE",
  "source": "git clone git@bitbucket.org:coesra/kepler_archives.git",
  "project_page": "",
  "issues_url": "",
  "dependencies": [
  ]
}

